Behavioral description/amd_tb.vcd
$date
  Thu Jun 25 13:11:10 2015
$end
$version
  GHDL v0
$end
$timescale
  1 fs
$end
$var reg 9 ! i[8:0] $end
$var reg 4 " d[3:0] $end
$var reg 4 # a[3:0] $end
$var reg 4 $ b[3:0] $end
$var reg 4 % y[3:0] $end
$var reg 1 & noe $end
$var reg 1 ' clk $end
$var reg 1 ( cin $end
$var reg 1 ) ng $end
$var reg 1 * np $end
$var reg 1 + cout $end
$var reg 1 , ovr $end
$var reg 1 - zero $end
$var reg 1 . sign $end
$var reg 1 / q0 $end
$var reg 1 0 q3 $end
$var reg 1 1 r0 $end
$var reg 1 2 r3 $end
$scope module amd2901_vhdl $end
$var reg 9 3 i[8:0] $end
$var reg 4 4 d[3:0] $end
$var reg 4 5 a[3:0] $end
$var reg 4 6 b[3:0] $end
$var reg 4 7 y[3:0] $end
$var reg 1 8 noe $end
$var reg 1 9 clk $end
$var reg 1 : cin $end
$var reg 1 ; ng $end
$var reg 1 < np $end
$var reg 1 = cout $end
$var reg 1 > ovr $end
$var reg 1 ? zero $end
$var reg 1 @ sign $end
$var reg 1 A q0 $end
$var reg 1 B q3 $end
$var reg 1 C r0 $end
$var reg 1 D r3 $end
$var reg 4 E alu_out[3:0] $end
$var reg 4 F ra[3:0] $end
$var reg 4 G rb[3:0] $end
$var reg 4 H r[3:0] $end
$var reg 4 I s[3:0] $end
$var reg 4 J q[3:0] $end
$var reg 1 K qen $end
$var reg 1 L ram_en $end
$scope module ram_1 $end
$var reg 9 M i[8:0] $end
$var reg 4 N a[3:0] $end
$var reg 4 O b[3:0] $end
$var reg 4 P alu_out[3:0] $end
$var reg 4 Q ra[3:0] $end
$var reg 4 R rb[3:0] $end
$var reg 1 S clk $end
$var reg 1 T r0 $end
$var reg 1 U r3 $end
$var reg 4 V sh_ram[3:0] $end
$var reg 1 W ram_en $end
$comment ram is not handled $end
$upscope $end
$scope module alu_1 $end
$var reg 9 X i[8:0] $end
$var reg 4 Y r[3:0] $end
$var reg 4 Z s[3:0] $end
$var reg 1 [ cin $end
$var reg 4 \ alu_out[3:0] $end
$var reg 1 ] ng $end
$var reg 1 ^ np $end
$var reg 1 _ cout $end
$var reg 1 ` ovr $end
$var reg 1 a zero $end
$var reg 1 b sign $end
$var reg 4 c y_tmp[3:0] $end
$var reg 4 d alu_tmp[3:0] $end
$var reg 4 e p[3:0] $end
$var reg 4 f g[3:0] $end
$var reg 16 g en[15:0] $end
$var reg 1 h c1 $end
$var reg 1 i c2 $end
$var reg 1 j c3 $end
$var reg 1 k c4 $end
$var reg 4 l cinv[3:0] $end
$upscope $end
$scope module muxe_1 $end
$var reg 9 m i[8:0] $end
$var reg 4 n d[3:0] $end
$var reg 4 o ra[3:0] $end
$var reg 4 p rb[3:0] $end
$var reg 4 q q[3:0] $end
$var reg 4 r r[3:0] $end
$var reg 4 s s[3:0] $end
$upscope $end
$scope module muxs_1 $end
$var reg 9 t i[8:0] $end
$var reg 4 u alu_out[3:0] $end
$var reg 4 v ra[3:0] $end
$var reg 1 w noe $end
$var reg 4 x y[3:0] $end
$var reg 4 y y_tmp[3:0] $end
$upscope $end
$scope module accu_1 $end
$var reg 9 z i[8:0] $end
$var reg 4 { alu_out[3:0] $end
$var reg 1 | clk $end
$var reg 4 } q[3:0] $end
$var reg 1 !" q0 $end
$var reg 1 "" q3 $end
$var reg 4 #" q_temp[3:0] $end
$var reg 4 $" sh_accu[3:0] $end
$var reg 1 %" waccu $end
$upscope $end
$upscope $end
$enddefinitions $end
#0
b011011111 !
b0000 "
b0000 #
b0000 $
b0000 %
0&
0'
0(
0)
0*
1+
1,
1-
0.
U/
U0
U1
U2
b011011111 3
b0000 4
b0000 5
b0000 6
b0000 7
08
09
0:
0;
0<
1=
1>
1?
0@
UA
UB
UC
UD
b0000 E
bUUUU F
bUUUU G
b0000 H
b0000 I
bUUUU J
UK
UL
b011011111 M
b0000 N
b0000 O
b0000 P
bUUUU Q
bUUUU R
0S
UT
UU
b0000 V
1W
b011011111 X
b0000 Y
b0000 Z
0[
b0000 \
0]
0^
1_
1`
1a
0b
bUUUU c
b0000 d
b0000 e
b0000 f
bUUUUUUUUUUUUUUUU g
0h
0i
0j
0k
b0000 l
b011011111 m
b0000 n
bUUUU o
bUUUU p
bUUUU q
b0000 r
b0000 s
b011011111 t
b0000 u
bUUUU v
0w
b0000 x
b0000 y
b011011111 z
b0000 {
0|
bUUUU }
U!"
U""
bUUUU #"
bUUUU $"
0%"
#1000000
1'
19
b0000 F
b0000 G
b0000 Q
b0000 R
1S
b0000 o
b0000 p
b0000 v
1|
#2000000
b0001 "
b0001 $
b0001 %
0'
0-
b0001 4
b0001 6
b0001 7
09
0?
b0001 E
bUUUU G
b0001 H
b0001 O
b0001 P
bUUUU R
0S
b0001 V
b0001 Y
b0001 \
0a
b0001 d
b0001 e
b0001 n
bUUUU p
b0001 r
b0001 u
b0001 x
b0001 y
b0001 {
0|
#3000000
1'
19
b0001 G
b0001 R
1S
b0001 p
1|
#4000000
b0010 "
b0010 $
b0010 %
0'
b0010 4
b0010 6
b0010 7
09
b0010 E
bUUUU G
b0010 H
b0010 O
b0010 P
bUUUU R
0S
b0010 V
b0010 Y
b0010 \
b0010 d
b0010 e
b0010 n
bUUUU p
b0010 r
b0010 u
b0010 x
b0010 y
b0010 {
0|
#5000000
1'
19
b0010 G
b0010 R
1S
b0010 p
1|
#6000000
b0011 "
b0011 $
b0011 %
0'
b0011 4
b0011 6
b0011 7
09
b0011 E
bUUUU G
b0011 H
b0011 O
b0011 P
bUUUU R
0S
b0011 V
b0011 Y
b0011 \
b0011 d
b0011 e
b0011 n
bUUUU p
b0011 r
b0011 u
b0011 x
b0011 y
b0011 {
0|
#7000000
1'
19
b0011 G
b0011 R
1S
b0011 p
1|
#8000000
b0100 "
b0100 $
b0100 %
0'
b0100 4
b0100 6
b0100 7
09
b0100 E
bUUUU G
b0100 H
b0100 O
b0100 P
bUUUU R
0S
b0100 V
b0100 Y
b0100 \
b0100 d
b0100 e
b0100 n
bUUUU p
b0100 r
b0100 u
b0100 x
b0100 y
b0100 {
0|
#9000000
1'
19
b0100 G
b0100 R
1S
b0100 p
1|
#10000000
b0101 "
b0101 $
b0101 %
0'
b0101 4
b0101 6
b0101 7
09
b0101 E
bUUUU G
b0101 H
b0101 O
b0101 P
bUUUU R
0S
b0101 V
b0101 Y
b0101 \
b0101 d
b0101 e
b0101 n
bUUUU p
b0101 r
b0101 u
b0101 x
b0101 y
b0101 {
0|
#11000000
1'
19
b0101 G
b0101 R
1S
b0101 p
1|
#12000000
b0110 "
b0110 $
b0110 %
0'
b0110 4
b0110 6
b0110 7
09
b0110 E
bUUUU G
b0110 H
b0110 O
b0110 P
bUUUU R
0S
b0110 V
b0110 Y
b0110 \
b0110 d
b0110 e
b0110 n
bUUUU p
b0110 r
b0110 u
b0110 x
b0110 y
b0110 {
0|
#13000000
1'
19
b0110 G
b0110 R
1S
b0110 p
1|
#14000000
b0111 "
b0111 $
b0111 %
0'
b0111 4
b0111 6
b0111 7
09
b0111 E
bUUUU G
b0111 H
b0111 O
b0111 P
bUUUU R
0S
b0111 V
b0111 Y
b0111 \
b0111 d
b0111 e
b0111 n
bUUUU p
b0111 r
b0111 u
b0111 x
b0111 y
b0111 {
0|
#15000000
1'
19
b0111 G
b0111 R
1S
b0111 p
1|
#16000000
b1000 "
b1000 $
b1000 %
0'
1.
b1000 4
b1000 6
b1000 7
09
1@
b1000 E
bUUUU G
b1000 H
b1000 O
b1000 P
bUUUU R
0S
b1000 V
b1000 Y
b1000 \
1b
b1000 d
b1000 e
b1000 n
bUUUU p
b1000 r
b1000 u
b1000 x
b1000 y
b1000 {
0|
#17000000
1'
19
b1000 G
b1000 R
1S
b1000 p
1|
#18000000
b1001 "
b1001 $
b1001 %
0'
b1001 4
b1001 6
b1001 7
09
b1001 E
bUUUU G
b1001 H
b1001 O
b1001 P
bUUUU R
0S
b1001 V
b1001 Y
b1001 \
b1001 d
b1001 e
b1001 n
bUUUU p
b1001 r
b1001 u
b1001 x
b1001 y
b1001 {
0|
#19000000
1'
19
b1001 G
b1001 R
1S
b1001 p
1|
#20000000
b1010 "
b1010 $
b1010 %
0'
b1010 4
b1010 6
b1010 7
09
b1010 E
bUUUU G
b1010 H
b1010 O
b1010 P
bUUUU R
0S
b1010 V
b1010 Y
b1010 \
b1010 d
b1010 e
b1010 n
bUUUU p
b1010 r
b1010 u
b1010 x
b1010 y
b1010 {
0|
#21000000
1'
19
b1010 G
b1010 R
1S
b1010 p
1|
#22000000
b1011 "
b1011 $
b1011 %
0'
b1011 4
b1011 6
b1011 7
09
b1011 E
bUUUU G
b1011 H
b1011 O
b1011 P
bUUUU R
0S
b1011 V
b1011 Y
b1011 \
b1011 d
b1011 e
b1011 n
bUUUU p
b1011 r
b1011 u
b1011 x
b1011 y
b1011 {
0|
#23000000
1'
19
b1011 G
b1011 R
1S
b1011 p
1|
#24000000
b1100 "
b1100 $
b1100 %
0'
b1100 4
b1100 6
b1100 7
09
b1100 E
bUUUU G
b1100 H
b1100 O
b1100 P
bUUUU R
0S
b1100 V
b1100 Y
b1100 \
b1100 d
b1100 e
b1100 n
bUUUU p
b1100 r
b1100 u
b1100 x
b1100 y
b1100 {
0|
#25000000
1'
19
b1100 G
b1100 R
1S
b1100 p
1|
#26000000
b1101 "
b1101 $
b1101 %
0'
b1101 4
b1101 6
b1101 7
09
b1101 E
bUUUU G
b1101 H
b1101 O
b1101 P
bUUUU R
0S
b1101 V
b1101 Y
b1101 \
b1101 d
b1101 e
b1101 n
bUUUU p
b1101 r
b1101 u
b1101 x
b1101 y
b1101 {
0|
#27000000
1'
19
b1101 G
b1101 R
1S
b1101 p
1|
#28000000
b1110 "
b1110 $
b1110 %
0'
b1110 4
b1110 6
b1110 7
09
b1110 E
bUUUU G
b1110 H
b1110 O
b1110 P
bUUUU R
0S
b1110 V
b1110 Y
b1110 \
b1110 d
b1110 e
b1110 n
bUUUU p
b1110 r
b1110 u
b1110 x
b1110 y
b1110 {
0|
#29000000
1'
19
b1110 G
b1110 R
1S
b1110 p
1|
#30000000
b1111 "
b1111 $
b1111 %
0'
1)
0+
0,
b1111 4
b1111 6
b1111 7
09
1;
0=
0>
b1111 E
bUUUU G
b1111 H
b1111 O
b1111 P
bUUUU R
0S
b1111 V
b1111 Y
b1111 \
1]
0_
0`
b1111 d
b1111 e
b1111 n
bUUUU p
b1111 r
b1111 u
b1111 x
b1111 y
b1111 {
0|
#31000000
1'
19
b1111 G
b1111 R
1S
b1111 p
1|
#32000000
b000000111 !
0'
b000000111 3
09
b000000111 M
0S
0W
b000000111 X
b000000111 m
b000000111 t
b000000111 z
0|
1%"
#34000000
1'
19
b1111 J
1S
b1111 q
1|
b1111 }
b1111 #"
#36000000
b010110100 !
b0101 "
b0111 #
b0110 $
b0111 %
0'
1)
1*
1+
0-
0.
Z/
Z0
Z1
Z2
b010110100 3
b0101 4
b0111 5
b0110 6
b0111 7
09
1;
1<
1=
0?
0@
ZA
ZB
ZC
ZD
b0111 E
b0111 F
b0110 G
b0000 H
b0111 I
b010110100 M
b0111 N
b0110 O
b0111 P
b0111 Q
b0110 R
0S
ZT
ZU
b0111 V
1W
b010110100 X
b0000 Y
b0111 Z
b0111 \
1]
1^
1_
0a
0b
b0111 d
b1111 e
b0111 f
1h
1i
1j
1k
b010110100 m
b0101 n
b0111 o
b0110 p
b0000 r
b0111 s
b010110100 t
b0111 u
b0111 v
b0111 x
b0111 y
b010110100 z
b0111 {
0|
Z!"
Z""
0%"
#37000000
#38000000
1'
19
b0111 G
b0111 R
1S
b0111 p
1|
#40000000
b110110010 !
b0011 "
b0110 #
b1100 $
b1111 %
0'
1(
1.
0/
10
11
12
b110110010 3
b0011 4
b0110 5
b1100 6
b1111 7
09
1:
1@
0A
1B
1C
1D
b1111 E
b1100 G
b1111 I
b110110010 M
b0110 N
b1100 O
b1111 P
b1100 R
0S
1T
1U
b1111 V
b110110010 X
b1111 Z
1[
b1111 \
1b
b1111 d
b1111 f
b0001 l
b110110010 m
b0011 n
b1100 p
b1111 s
b110110010 t
b1111 u
b1111 x
b1111 y
b110110010 z
b1111 {
0|
0!"
1""
b1110 $"
1%"
#41000000
#42000000
b1110 %
1'
b1110 7
19
b1110 E
b1111 G
b1110 I
b1110 J
b1110 P
b1111 R
1S
b1101 V
b1110 Z
b1110 \
b1110 d
b1110 f
b1111 p
b1110 q
b1110 s
b1110 u
b1110 x
b1110 y
b1110 {
1|
b1110 }
b1110 #"
b1100 $"
#44000000
b111001001 !
b1000 "
b1001 #
b0110 $
bZZZZ %
1&
0'
1)
1*
0+
1,
01
b111001001 3
b1000 4
b1001 5
b0110 6
bZZZZ 7
18
09
1;
1<
0=
1>
0C
b1110 E
b1001 F
b0111 G
b1001 H
b0111 I
b111001001 M
b1001 N
b0110 O
b1110 P
b1001 Q
b0111 R
0S
0T
b1100 V
b111001001 X
b1001 Y
b0111 Z
b1110 \
1]
1^
0_
1`
b1110 d
b0111 e
b0110 f
0k
b111001001 m
b1000 n
b1001 o
b0111 p
b1001 r
b0111 s
b111001001 t
b1110 u
b1001 v
1w
bZZZZ x
b1110 y
b111001001 z
b1110 {
0|
0%"
#45000000
#46000000
1'
0)
1+
0,
0.
02
19
0;
1=
0>
0@
0D
b0011 E
b1100 G
b1100 I
b0011 P
b1100 R
1S
0U
b0110 V
b1100 Z
b0011 \
0]
1_
0`
0b
b0011 d
b1110 e
b0100 f
0h
0i
1k
b1100 p
b1100 s
b0011 u
b0011 y
b0011 {
1|
#48000000
b100110100 !
b0011 #
b0111 $
0'
1)
0.
0/
00
11
b100110100 3
b0011 5
b0111 6
09
1;
0@
0A
0B
1C
b0011 E
b0011 F
b0111 G
b0000 H
b0011 I
b100110100 M
b0011 N
b0111 O
b0011 P
b0011 Q
b0111 R
0S
1T
b0001 V
b100110100 X
b0000 Y
b0011 Z
b0011 \
1]
0b
b0011 d
b1111 e
b0011 f
1h
1i
b100110100 m
b0011 o
b0111 p
b0000 r
b0011 s
b100110100 t
b0011 u
b0011 v
b0011 y
b100110100 z
b0011 {
0|
0!"
0""
b0111 $"
1%"
#49000000
#50000000
1'
1/
19
1A
b0001 G
b0111 J
b0001 R
1S
b0001 p
b0111 q
1|
b0111 }
1!"
b0111 #"
b0011 $"
#52000000
b100001101 !
b1100 "
b0001 #
b0101 $
0'
1)
1*
0+
12
b100001101 3
b1100 4
b0001 5
b0101 6
09
1;
1<
0=
1D
b0101 E
b0001 F
b0101 G
b1100 H
b0001 I
b100001101 M
b0001 N
b0101 O
b0101 P
b0001 Q
b0101 R
0S
1U
b1010 V
b100001101 X
b1100 Y
b0001 Z
b0101 \
1]
1^
0_
b0101 d
b0011 e
b0001 f
0j
0k
b100001101 m
b1100 n
b0001 o
b0101 p
b1100 r
b0001 s
b100001101 t
b0101 u
b0001 v
b0101 y
b100001101 z
b0101 {
0|
#53000000
#54000000
1'
19
b1010 G
b0011 J
b1010 R
1S
b1010 p
b0011 q
1|
b0011 }
b0011 #"
b0001 $"
#56000000
b010010101 !
b1111 #
b1111 $
b1111 %
0&
0'
0(
1)
0+
1.
Z/
Z0
Z1
Z2
b010010101 3
b1111 5
b1111 6
b1111 7
08
09
0:
1;
0=
1@
ZA
ZB
ZC
ZD
b1100 E
b1111 F
b1111 G
b1111 I
b010010101 M
b1111 N
b1111 O
b1100 P
b1111 Q
b1111 R
0S
ZT
ZU
b1100 V
b010010101 X
b1111 Z
0[
b1100 \
1]
0_
1b
b1100 d
b1100 e
b0000 f
0h
0i
0j
0k
b0000 l
b010010101 m
b1111 o
b1111 p
b1111 s
b010010101 t
b1100 u
b1111 v
0w
b1111 x
b1111 y
b010010101 z
b1100 {
0|
Z!"
Z""
0%"
#57000000
#58000000
b1100 %
1'
0*
b1100 7
19
0<
b1111 E
b1100 F
b1100 G
b1100 I
b1111 P
b1100 Q
b1100 R
1S
b1111 V
b1100 Z
b1111 \
0^
b1111 d
b1111 e
b1100 o
b1100 p
b1100 s
b1111 u
b1100 v
b1100 x
b1100 y
b1111 {
1|
#60000000
b010001001 !
b0100 "
b1010 #
b0100 $
b1010 %
0'
1(
1*
0+
1,
0-
1.
b010001001 3
b0100 4
b1010 5
b0100 6
b1010 7
09
1:
1<
0=
1>
0?
1@
b1010 E
b1010 F
b0100 G
b1010 H
b0100 I
b010001001 M
b1010 N
b0100 O
b1010 P
b1010 Q
b0100 R
0S
b1010 V
b010001001 X
b1010 Y
b0100 Z
1[
b1010 \
1^
0_
1`
0a
1b
b1010 d
b0101 e
b0100 f
1h
0i
1j
0k
b0001 l
b010001001 m
b0100 n
b1010 o
b0100 p
b1010 r
b0100 s
b010001001 t
b1010 u
b1010 v
b1010 x
b1010 y
b010001001 z
b1010 {
0|
#61000000
#62000000
1'
0*
1+
0,
1-
0.
19
0<
1=
0>
1?
0@
b0000 E
b1010 G
b1010 I
b0000 P
b1010 R
1S
b0000 V
b1010 Z
b0000 \
0^
1_
0`
1a
0b
b0000 d
b1111 e
b0000 f
1i
1k
b1010 p
b1010 s
b0000 u
b0000 {
1|
#64000000
b101010101 !
b1000 "
b1100 #
b1110 $
b1000 %
0'
0(
1*
0+
0-
1.
1/
10
01
02
b101010101 3
b1000 4
b1100 5
b1110 6
b1000 7
09
0:
1<
0=
0?
1@
1A
1B
0C
0D
b1000 E
b1111 F
b1110 G
b1000 H
b1111 I
b101010101 M
b1100 N
b1110 O
b1000 P
b1111 Q
b1110 R
0S
0T
0U
b0100 V
b101010101 X
b1000 Y
b1111 Z
0[
b1000 \
1^
0_
0a
1b
b1000 d
b1000 e
0h
0i
0j
0k
b0000 l
b101010101 m
b1000 n
b1111 o
b1110 p
b1000 r
b1111 s
b101010101 t
b1000 u
b1111 v
b1000 x
b1000 y
b101010101 z
b1000 {
0|
1!"
1""
#65000000
#66000000
1'
19
b0100 G
b0100 R
1S
b0100 p
1|
#68000000
b011100001 !
b1111 "
b1001 #
b0010 $
b0000 %
0'
1)
0*
0+
1,
1-
0.
Z/
Z0
Z1
Z2
b011100001 3
b1111 4
b1001 5
b0010 6
b0000 7
09
1;
0<
0=
1>
1?
0@
ZA
ZB
ZC
ZD
b0000 E
b1001 F
b0010 G
b1001 H
b0010 I
b011100001 M
b1001 N
b0010 O
b0000 P
b1001 Q
b0010 R
0S
ZT
ZU
b0000 V
b011100001 X
b1001 Y
b0010 Z
b0000 \
1]
0^
0_
1`
1a
0b
b0000 d
b1011 e
b0000 f
0j
0k
b011100001 m
b1111 n
b1001 o
b0010 p
b1001 r
b0010 s
b011100001 t
b0000 u
b1001 v
b0000 x
b0000 y
b011100001 z
b0000 {
0|
Z!"
Z""
#69000000
#70000000
1'
19
b0000 G
b0000 I
b0000 R
1S
b0000 Z
b1001 e
b0000 p
b0000 s
1|
#72000000
b010000111 !
b1100 "
b1101 #
b1100 $
bZZZZ %
1&
0'
1(
1*
0,
0-
1.
b010000111 3
b1100 4
b1101 5
b1100 6
bZZZZ 7
18
09
1:
1<
0>
0?
1@
b1101 E
b1101 F
b1111 G
b1100 H
b010000111 M
b1101 N
b1100 O
b1101 P
b1101 Q
b1111 R
0S
b1101 V
b010000111 X
b1100 Y
1[
b1101 \
1^
0`
0a
1b
b1101 d
b1100 e
0h
b0001 l
b010000111 m
b1100 n
b1101 o
b1111 p
b1100 r
b010000111 t
b1101 u
b1101 v
1w
bZZZZ x
b1101 y
b010000111 z
b1101 {
0|
#73000000
#74000000
1'
19
b1101 G
b1101 R
1S
b1101 p
1|
#76000000
b110110101 !
b1000 "
b1010 #
b1011 $
0'
0(
1)
1*
1+
0.
1/
00
01
02
b110110101 3
b1000 4
b1010 5
b1011 6
09
0:
1;
1<
1=
0@
1A
0B
0C
0D
b0010 E
b1010 F
b1011 G
b1000 H
b1010 I
b110110101 M
b1010 N
b1011 O
b0010 P
b1010 Q
b1011 R
0S
0T
0U
b0100 V
b110110101 X
b1000 Y
b1010 Z
0[
b0010 \
1]
1^
1_
0b
b0010 d
b1111 e
b0010 f
0h
1i
1j
1k
b0000 l
b110110101 m
b1000 n
b1010 o
b1011 p
b1000 r
b1010 s
b110110101 t
b0010 u
b1010 v
b0010 y
b110110101 z
b0010 {
0|
1!"
0""
b0111 $"
1%"
#77000000
#78000000
1'
19
b0100 G
b0111 J
b0100 R
1S
b0100 p
b0111 q
1|
b0111 }
b0111 #"
b1111 $"
#80000000
b111101101 !
b0111 "
b1011 #
b1010 $
b0000 %
0&
0'
1(
1)
0*
1,
1-
0.
0/
02
b111101101 3
b0111 4
b1011 5
b1010 6
b0000 7
08
09
1:
1;
0<
1>
1?
0@
0A
0D
b0000 E
b0100 F
b1010 G
b0111 H
b0100 I
b111101101 M
b1011 N
b1010 O
b0000 P
b0100 Q
b1010 R
0S
0U
b0000 V
b111101101 X
b0111 Y
b0100 Z
1[
b0000 \
1]
0^
1`
1a
0b
b0000 d
b1100 e
b0000 f
0h
0i
0j
0k
b0001 l
b111101101 m
b0111 n
b0100 o
b1010 p
b0111 r
b0100 s
b111101101 t
b0000 u
b0100 v
0w
b0000 x
b0000 y
b111101101 z
b0000 {
0|
0!"
0%"
#81000000
#82000000
1'
19
b0000 G
b0000 R
1S
b0000 p
1|
#84000000
b100010100 !
b0001 "
b0010 #
b1111 $
bZZZZ %
1&
0'
1)
0*
1+
0,
1-
0.
1/
01
12
b100010100 3
b0001 4
b0010 5
b1111 6
bZZZZ 7
18
09
1;
0<
1=
0>
1?
0@
1A
0C
1D
b0000 E
b0000 F
b1100 G
b0000 H
b0000 I
b100010100 M
b0010 N
b1111 O
b0000 P
b0000 Q
b1100 R
0S
0T
1U
b1000 V
b100010100 X
b0000 Y
b0000 Z
b0000 \
1]
0^
1_
0`
1a
0b
b0000 d
b1111 e
b0000 f
1h
1i
1j
1k
b100010100 m
b0001 n
b0000 o
b1100 p
b0000 r
b0000 s
b100010100 t
b0000 u
b0000 v
1w
bZZZZ x
b0000 y
b100010100 z
b0000 {
0|
1!"
b0011 $"
1%"
#85000000
#86000000
1'
19
b1000 G
b0011 J
b1000 R
1S
b1000 p
b0011 q
1|
b0011 }
b0011 #"
b0001 $"
#88000000
b101110001 !
b1110 "
b1011 #
b1100 %
0&
0'
1*
1+
0-
1.
b101110001 3
b1110 4
b1011 5
b1100 7
08
09
1<
1=
0?
1@
b1100 E
b0100 F
b0100 H
b1000 I
b101110001 M
b1011 N
b1100 P
b0100 Q
0S
b1110 V
b101110001 X
b0100 Y
b1000 Z
b1100 \
1^
1_
0a
1b
b1100 d
b1011 e
b1000 f
0j
b101110001 m
b1110 n
b0100 o
b0100 r
b1000 s
b101110001 t
b1100 u
b0100 v
0w
b1100 x
b1100 y
b101110001 z
b1100 {
0|
0%"
#89000000
#90000000
b1010 %
1'
b1010 7
19
b1010 E
b1110 G
b1110 I
b1010 P
b1110 R
1S
b1101 V
b1110 Z
b1010 \
b1010 d
b1111 e
b1010 f
1j
b1110 p
b1110 s
b1010 u
b1010 x
b1010 y
b1010 {
1|
#92000000
b000101010 !
b1001 "
b0011 #
b1110 $
b0011 %
0'
0)
0*
0.
Z/
Z0
Z1
Z2
b000101010 3
b1001 4
b0011 5
b1110 6
b0011 7
09
0;
0<
0@
ZA
ZB
ZC
ZD
b0011 E
b0011 F
b0100 G
b0000 H
b0011 I
b000101010 M
b0011 N
b1110 O
b0011 P
b0011 Q
b0100 R
0S
ZT
ZU
0W
b000101010 X
b0000 Y
b0011 Z
b0011 \
0]
0^
0b
b0011 d
b0011 f
b000101010 m
b1001 n
b0011 o
b0100 p
b0000 r
b0011 s
b000101010 t
b0011 u
b0011 v
b0011 x
b0011 y
b000101010 z
b0011 {
0|
Z!"
Z""
1%"
#93000000
#94000000
1'
19
1S
1|
#96000000
b001011110 !
b0001 "
b0110 #
b0100 $
bZZZZ %
1&
0'
0(
0)
1+
1,
b001011110 3
b0001 4
b0110 5
b0100 6
bZZZZ 7
18
09
0:
0;
1=
1>
b1100 F
b1010 G
b0001 H
b001011110 M
b0110 N
b0100 O
b1100 Q
b1010 R
0S
b001011110 X
b0001 Y
0[
0]
1_
1`
b0011 e
b0001 f
1h
1i
0j
0k
b0000 l
b001011110 m
b0001 n
b1100 o
b1010 p
b0001 r
b001011110 t
b1100 v
1w
bZZZZ x
b001011110 z
0|
0%"
#97000000
#98000000
1'
19
1S
1|
#100000000
b111110000 !
b0000 "
b1100 #
b0111 $
b1110 %
0&
0'
0)
1*
0,
1.
1/
00
01
12
b111110000 3
b0000 4
b1100 5
b0111 6
b1110 7
08
09
0;
1<
0>
1@
1A
0B
0C
1D
b1110 E
b1101 F
b0001 G
b1101 H
b111110000 M
b1100 N
b0111 O
b1110 P
b1101 Q
b0001 R
0S
0T
1U
b1100 V
1W
b111110000 X
b1101 Y
b1110 \
0]
1^
0`
1b
b1110 d
b0011 e
b0010 f
0h
0j
0k
b111110000 m
b0000 n
b1101 o
b0001 p
b1101 r
b111110000 t
b1110 u
b1101 v
0w
b1110 x
b1110 y
b111110000 z
b1110 {
0|
1!"
0""
#101000000
#102000000
1'
19
b1100 G
b1100 R
1S
b1100 p
1|
#104000000
b100000110 !
b0010 "
b0010 #
b1100 $
b0101 %
0'
1)
1*
0+
0-
0.
1/
10
11
b100000110 3
b0010 4
b0010 5
b1100 6
b0101 7
09
1;
1<
0=
0?
0@
1A
1B
1C
b0101 E
b0000 F
b1101 G
b0010 H
b100000110 M
b0010 N
b1100 O
b0101 P
b0000 Q
b1101 R
0S
1T
b1010 V
b100000110 X
b0010 Y
b0101 \
1]
1^
0_
0a
0b
b0101 d
b0011 e
b0010 f
0h
0j
0k
b100000110 m
b0010 n
b0000 o
b1101 p
b0010 r
b100000110 t
b0101 u
b0000 v
b0101 x
b0101 y
b100000110 z
b0101 {
0|
1!"
1""
b1001 $"
1%"
#105000000
#106000000
b1011 %
1'
1.
b1011 7
19
1@
b1011 E
b1010 G
b1001 I
b1001 J
b1011 P
b1010 R
1S
b1101 V
b1001 Z
b1011 \
1b
b1011 d
b1011 e
b0000 f
0i
b1010 p
b1001 q
b1001 s
b1011 u
b1011 x
b1011 y
b1011 {
1|
b1001 }
b1001 #"
b1100 $"
#108000000
b000000000 !
b1000 "
b0100 #
b0101 $
b0100 %
0'
1(
0)
1+
1,
0.
Z/
Z0
Z1
Z2
b000000000 3
b1000 4
b0100 5
b0101 6
b0100 7
09
1:
0;
1=
1>
0@
ZA
ZB
ZC
ZD
b0100 E
b1010 F
b1010 H
b000000000 M
b0100 N
b0101 O
b0100 P
b1010 Q
0S
ZT
ZU
0W
b000000000 X
b1010 Y
1[
b0100 \
0]
1_
1`
0b
b0100 d
b1011 e
b1000 f
1h
1i
1k
b0001 l
b000000000 m
b1000 n
b1010 o
b1010 r
b000000000 t
b0100 u
b1010 v
b0100 x
b0100 y
b000000000 z
b0100 {
0|
Z!"
Z""
#109000000
#110000000
b1111 %
1'
1)
0+
0,
1.
b1111 7
19
1;
0=
0>
1@
b1111 E
b0100 I
b0100 J
b1111 P
1S
b0100 Z
b1111 \
1]
0_
0`
1b
b1111 d
b1110 e
b0000 f
0h
0i
0k
b0100 q
b0100 s
b1111 u
b1111 x
b1111 y
b1111 {
1|
b0100 }
b0100 #"
#112000000
b100010010 !
b0111 "
b1000 #
b1111 $
bZZZZ %
1&
0'
1)
0+
0,
1.
0/
00
01
12
b100010010 3
b0111 4
b1000 5
b1111 6
bZZZZ 7
18
09
1;
0=
0>
1@
0A
0B
0C
1D
b1100 E
b1000 F
b1110 G
b0000 H
b100010010 M
b1000 N
b1111 O
b1100 P
b1000 Q
b1110 R
0S
0T
1U
b1110 V
1W
b100010010 X
b0000 Y
b1100 \
1]
0_
0`
1b
b1100 d
b1011 e
b0000 f
1h
1i
0k
b100010010 m
b0111 n
b1000 o
b1110 p
b0000 r
b100010010 t
b1100 u
b1000 v
1w
bZZZZ x
b1100 y
b100010010 z
b1100 {
0|
0!"
0""
b0010 $"
#113000000
#114000000
1'
19
b1110 E
b0010 I
b0010 J
b1110 P
1S
b1111 V
b0010 Z
b1110 \
b1110 d
b1101 e
0i
b0010 q
b0010 s
b1110 u
b1110 y
b1110 {
1|
b0010 }
b0010 #"
b0001 $"
#116000000
b101100010 !
b0011 "
b1011 #
b0001 $
b0000 %
0&
0'
0(
0*
1,
1-
0.
02
b101100010 3
b0011 4
b1011 5
b0001 6
b0000 7
08
09
0:
0<
1>
1?
0@
0D
b0000 E
b0100 F
b0001 G
b101100010 M
b1011 N
b0001 O
b0000 P
b0100 Q
b0001 R
0S
0U
b0000 V
b101100010 X
0[
b0000 \
0^
1`
1a
0b
b0000 d
b0010 e
0h
b0000 l
b101100010 m
b0011 n
b0100 o
b0001 p
b101100010 t
b0000 u
b0100 v
0w
b0000 x
b0000 y
b101100010 z
b0000 {
0|
0%"
#117000000
#118000000
1'
19
b0000 G
b0000 R
1S
b0000 p
1|
#120000000
b101101110 !
b1001 "
b1000 #
b1110 $
bZZZZ %
1&
0'
0)
1+
0-
b101101110 3
b1001 4
b1000 5
b1110 6
bZZZZ 7
18
09
0;
1=
0?
b0010 E
b1000 F
b0100 G
b1001 H
b101101110 M
b1000 N
b1110 O
b0010 P
b1000 Q
b0100 R
0S
b0001 V
b101101110 X
b1001 Y
b0010 \
0]
1_
0a
b0010 d
b0110 e
b0010 f
1i
1j
0k
b101101110 m
b1001 n
b1000 o
b0100 p
b1001 r
b101101110 t
b0010 u
b1000 v
1w
bZZZZ x
b0010 y
b101101110 z
b0010 {
0|
#121000000
#122000000
1'
19
b0001 G
b0001 R
1S
b0001 p
1|
